{"log_queries":
	[
		{"region_chil":
			{"id":1,
			"region_code":"C0371",
			"region_name":"郑州",
			"s_region_level_id":2,
			"is_leaf":"0",
			"father_region_id":3,
			"created_at":"2017-01-05T11:18:05.000Z",
			"updated_at":"2017-01-05T11:18:07.000Z"
			},
			"d_stations":
			[
				{"id":109,
				"station_name":"y",
				"region_code":"",
				"station_type":"小型站",
				"object_id":null,
				"station_location":"",
				"longitude":"",
				"latitude":"",
				"station_ip":null,
				"station_mac":null,
				"service_no":"",
				"setup_date":null,
				"station_status":"启用",
				"is_online":null,
				"note":"",
				"created_at":"2017-04-13T11:32:26.000Z",
				"updated_at":"2017-04-13T11:32:26.000Z",
				"s_administrative_area_id":null
				},
				{"id":119,
				"station_name":"y",
				"region_code":"",
				"station_type":"小型站",
				"object_id":null,
				"station_location":"",
				"longitude":"",
				"latitude":"",
				"station_ip":null,
				"station_mac":null,
				"service_no":"",
				"setup_date":null,
				"station_status":"启用",
				"is_online":null,
				"note":"",
				"created_at":"2017-04-13T11:32:26.000Z",
				"updated_at":"2017-04-13T11:32:26.000Z",
				"s_administrative_area_id":null
				}
			]
		}
	],
	"d_stations":[
		{"id":1090,
		"station_name":"y",
		"region_code":"",
		"station_type":"小型站",
		"object_id":null,
		"station_location":"",
		"longitude":"",
		"latitude":"",
		"station_ip":null,
		"station_mac":null,
		"service_no":"",
		"setup_date":null,
		"station_status":"启用",
		"is_online":null,
		"note":"",
		"created_at":"2017-04-13T11:32:26.000Z",
		"updated_at":"2017-04-13T11:32:26.000Z",
		"s_administrative_area_id":null
		}
	]
}